Aula5Jump/simulation/qsim/Aula5.msim.vcd
$comment
	File created using the following command:
		vcd file Aula5.msim.vcd -direction
$end
$date
	Tue Sep 13 13:57:42 2022
$end
$version
	ModelSim Version 2020.1
$end
$timescale
	1ps
$end

$scope module aula5_vhd_vec_tst $end
$var wire 1 ! CLOCK_50 $end
$var wire 1 " KEY $end
$var wire 1 # LEDR [9] $end
$var wire 1 $ LEDR [8] $end
$var wire 1 % LEDR [7] $end
$var wire 1 & LEDR [6] $end
$var wire 1 ' LEDR [5] $end
$var wire 1 ( LEDR [4] $end
$var wire 1 ) LEDR [3] $end
$var wire 1 * LEDR [2] $end
$var wire 1 + LEDR [1] $end
$var wire 1 , LEDR [0] $end
$var wire 1 - PC_OUT [8] $end
$var wire 1 . PC_OUT [7] $end
$var wire 1 / PC_OUT [6] $end
$var wire 1 0 PC_OUT [5] $end
$var wire 1 1 PC_OUT [4] $end
$var wire 1 2 PC_OUT [3] $end
$var wire 1 3 PC_OUT [2] $end
$var wire 1 4 PC_OUT [1] $end
$var wire 1 5 PC_OUT [0] $end

$scope module i1 $end
$var wire 1 6 gnd $end
$var wire 1 7 vcc $end
$var wire 1 8 unknown $end
$var wire 1 9 devoe $end
$var wire 1 : devclrn $end
$var wire 1 ; devpor $end
$var wire 1 < ww_devoe $end
$var wire 1 = ww_devclrn $end
$var wire 1 > ww_devpor $end
$var wire 1 ? ww_CLOCK_50 $end
$var wire 1 @ ww_KEY $end
$var wire 1 A ww_PC_OUT [8] $end
$var wire 1 B ww_PC_OUT [7] $end
$var wire 1 C ww_PC_OUT [6] $end
$var wire 1 D ww_PC_OUT [5] $end
$var wire 1 E ww_PC_OUT [4] $end
$var wire 1 F ww_PC_OUT [3] $end
$var wire 1 G ww_PC_OUT [2] $end
$var wire 1 H ww_PC_OUT [1] $end
$var wire 1 I ww_PC_OUT [0] $end
$var wire 1 J ww_LEDR [9] $end
$var wire 1 K ww_LEDR [8] $end
$var wire 1 L ww_LEDR [7] $end
$var wire 1 M ww_LEDR [6] $end
$var wire 1 N ww_LEDR [5] $end
$var wire 1 O ww_LEDR [4] $end
$var wire 1 P ww_LEDR [3] $end
$var wire 1 Q ww_LEDR [2] $end
$var wire 1 R ww_LEDR [1] $end
$var wire 1 S ww_LEDR [0] $end
$var wire 1 T \CLOCK_50~input_o\ $end
$var wire 1 U \KEY~input_o\ $end
$var wire 1 V \~QUARTUS_CREATED_GND~I_combout\ $end
$upscope $end
$upscope $end
$enddefinitions $end
#0
$dumpvars
1!
0"
06
17
x8
19
1:
1;
1<
1=
1>
1?
0@
1T
0U
xV
0A
0B
0C
0D
0E
0F
0G
0H
0I
0J
0K
0L
0M
0N
0O
0P
0Q
0R
0S
0#
0$
0%
0&
0'
0(
0)
0*
0+
0,
0-
0.
0/
00
01
02
03
04
05
$end
#10000
0!
0?
0T
#20000
1!
1?
1T
#30000
0!
0?
0T
#40000
1!
1?
1T
#50000
0!
0?
0T
#60000
1!
1?
1T
#70000
0!
0?
0T
#80000
1!
1?
1T
#90000
0!
0?
0T
#100000
1!
1?
1T
#110000
0!
0?
0T
#120000
1!
1?
1T
#130000
0!
0?
0T
#140000
1!
1?
1T
#150000
0!
0?
0T
#160000
1!
1?
1T
#170000
0!
0?
0T
#180000
1!
1?
1T
#190000
0!
0?
0T
#200000
1!
1?
1T
#210000
0!
0?
0T
#220000
1!
1?
1T
#230000
0!
0?
0T
